a:3:{s:8:"template";s:7:"gymplan";s:4:"mods";a:44:{i:0;b:0;s:18:"nav_menu_locations";a:2:{s:7:"primary";i:31;s:6:"footer";i:32;}s:12:"header_image";s:80:"http://heratheme.com/gymplan/wp-content/uploads/2016/09/cropped-about-banner.jpg";s:17:"header_image_data";O:8:"stdClass":5:{s:13:"attachment_id";i:4955;s:3:"url";s:80:"http://heratheme.com/gymplan/wp-content/uploads/2016/09/cropped-about-banner.jpg";s:13:"thumbnail_url";s:80:"http://heratheme.com/gymplan/wp-content/uploads/2016/09/cropped-about-banner.jpg";s:6:"height";i:339;s:5:"width";i:1920;}s:15:"header_top_text";s:658:"<div class="row">
<div class="col-md-5">
<div class="gymplan-time-work">
<i class="ti-time"></i>
<span class="fhy-time-open">Monday - Friday 08:00-19:00</span>
<span class="gymplan-time-close">Saturday and Sunday - CLOSED</span>
</div>
</div>
<div class="col-md-4">
<div class="gymplan-location-united">
<i class="icon-location-pin icons"></i>
<span>101 Barnard St - Suite 111</span>
<span>United States - GA 2536</span>
</div>
</div>
<div class="col-md-3">
<div class="gymplan-call-in">
<i class="icon-call-in icons"></i>
<a href="" class="gymplan-call">+37 83212 1345</a>
<a href="mailto:" class="gymplan-mail">hello@hir.com</a>
</div>
</div>
</div>
</div>";s:29:"hidden_header_image_dot_above";b:1;s:18:"blog_content_limit";s:2:"50";s:12:"blog_display";s:7:"content";s:23:"portfolios_single_style";s:10:"no-sidebar";s:25:"gymplan_body_boxed_layout";b:0;s:20:"gymplan_toolbar_show";b:1;s:21:"gymplan_header_layout";s:9:"header_s1";s:16:"background_image";s:0:"";s:26:"gymplan_body_bg_attachment";s:5:"fixed";s:20:"archive_layout_style";s:9:"blog-list";s:18:"gymplan_footer_col";s:1:"3";s:16:"footer_is_sticky";b:0;s:10:"footer_top";s:0:"";s:16:"footer_go_to_top";b:1;s:16:"background_color";s:6:"ffffff";s:22:"archive_sidebar_layout";s:13:"sidebar-right";s:13:"gymplan_phone";s:14:"+ 888-637-7262";s:13:"gymplan_email";s:19:"heratheme@gmail.com";s:15:"gymplan_address";s:43:"38 East 32nd Street 
<br>New York, NY 10016";s:15:"blog_pagination";s:9:"load_more";s:18:"classes_page_style";s:16:"classes-3-col-ma";s:29:"gymplan_hide_class_instructor";b:0;s:27:"gymplan_hide_class_schedule";b:0;s:22:"classes_archive_layout";s:10:"no-sidebar";s:21:"gymplan_smooth_scroll";b:0;s:18:"custom_css_post_id";i:5394;s:15:"woo_hide_filter";b:0;s:18:"woo_sidebar_layout";s:13:"sidebar-right";s:17:"woo_post_per_page";s:1:"9";s:18:"woo_hide_icon_link";b:0;s:27:"woo_number_related_products";s:1:"3";s:24:"gymplan_font_size_topbar";s:0:"";s:27:"gymplan_submenu_topbar_size";s:0:"";s:22:"gymplan_body_bg_repeat";s:6:"repeat";s:20:"gymplan_body_bg_size";s:4:"auto";s:11:"custom_logo";i:5801;s:26:"show_header_image_all_page";b:1;s:26:"gymplan_header_enable_cart";b:0;s:15:"mobile_nav_logo";s:73:"http://heratheme.com/gymplan/wp-content/uploads/2016/09/logo-gymplan2.png";}s:7:"options";a:2:{s:9:"site_icon";s:4:"5805";s:23:"nav_menus_created_posts";a:0:{}}}